{
  "profiles": {
    "MathConsole": {
      "commandName": "Project",
      "commandLineArgs": "Fer -n 8 -o console -fmt matrix -bg White -fg Black"
    },
    "MathConsole help": {
      "commandName": "Project",
      "commandLineArgs": "Fib --help"
    },
    "MathConsole output": {
      "commandName": "Project",
      "commandLineArgs": "-o file "
    },
    "MathConsole path": {
      "commandName": "Project",
      "commandLineArgs": "--file "
    }
  }
}